{
    "data": [
        {
            "TOP_LINE": 10000,
            "BOTTOM_LINE": 500,
            "NOW_NUMBER":5121,
            "THIS_MOUTH_TAKEIN":0,
            "THIS_MOUTH_TAKEOUT":0,
            "LAST_MOUTH_TAKEIN":0,
            "LAST_MOUTH_TAKEOUT":0,
            "RAW_MATERIAL_BATCH_NUMBER_": "SDS-7120",
            "OWN_ADRESS": "GEM",
            "MATERIAL_NAME_": "实轴"
        },
        {
            "TOP_LINE": 20000,
            "BOTTOM_LINE": 5000,
            "NOW_NUMBER":3000,
            "THIS_MOUTH_TAKEIN":0,
            "THIS_MOUTH_TAKEOUT":0,
            "LAST_MOUTH_TAKEIN":0,
            "LAST_MOUTH_TAKEOUT":0,
            "RAW_MATERIAL_BATCH_NUMBER_": "SDS-7120",
            "OWN_ADRESS": "GEM",
            "MATERIAL_NAME_": "外轮星"
        },
        {
            "TOP_LINE": 30000,
            "BOTTOM_LINE": 5000,
            "NOW_NUMBER":5121,
            "THIS_MOUTH_TAKEIN":0,
            "THIS_MOUTH_TAKEOUT":0,
            "LAST_MOUTH_TAKEIN":0,
            "LAST_MOUTH_TAKEOUT":0,
            "RAW_MATERIAL_BATCH_NUMBER_": "SDS-7120",
            "OWN_ADRESS": "GEM",
            "MATERIAL_NAME_": "实轴"
        },
        {
            "TOP_LINE": 40000,
            "BOTTOM_LINE": 5000,
            "NOW_NUMBER":3000,
            "THIS_MOUTH_TAKEIN":0,
            "THIS_MOUTH_TAKEOUT":0,
            "LAST_MOUTH_TAKEIN":0,
            "LAST_MOUTH_TAKEOUT":0,
            "RAW_MATERIAL_BATCH_NUMBER_": "SDS-7120",
            "OWN_ADRESS": "GEM",
            "MATERIAL_NAME_": "外星轮"
        },
        {
            "TOP_LINE": 50000,
            "BOTTOM_LINE": 5000,
            "NOW_NUMBER":5121,
            "THIS_MOUTH_TAKEIN":0,
            "THIS_MOUTH_TAKEOUT":0,
            "LAST_MOUTH_TAKEIN":0,
            "LAST_MOUTH_TAKEOUT":0,
            "RAW_MATERIAL_BATCH_NUMBER_": "SDS-7120",
            "OWN_ADRESS": "GEM",
            "MATERIAL_NAME_": "实轴"
        },
        {
            "TOP_LINE": 60000,
            "BOTTOM_LINE": 5000,
            "NOW_NUMBER":5121,
            "THIS_MOUTH_TAKEIN":0,
            "THIS_MOUTH_TAKEOUT":0,
            "LAST_MOUTH_TAKEIN":0,
            "LAST_MOUTH_TAKEOUT":0,
            "RAW_MATERIAL_BATCH_NUMBER_": "SDS-7120",
            "OWN_ADRESS": "GEM",
            "MATERIAL_NAME_": "实轴"
        },
        {
            "TOP_LINE": 20000,
            "BOTTOM_LINE": 5000,
            "NOW_NUMBER":5121,
            "THIS_MOUTH_TAKEIN":0,
            "THIS_MOUTH_TAKEOUT":0,
            "LAST_MOUTH_TAKEIN":0,
            "LAST_MOUTH_TAKEOUT":0,
            "RAW_MATERIAL_BATCH_NUMBER_": "SDS-7120",
            "OWN_ADRESS": "GEM",
            "MATERIAL_NAME_": "实轴"
        },
        {
            "TOP_LINE": 20000,
            "BOTTOM_LINE": 5000,
            "NOW_NUMBER":5121,
            "THIS_MOUTH_TAKEIN":0,
            "THIS_MOUTH_TAKEOUT":0,
            "LAST_MOUTH_TAKEIN":0,
            "LAST_MOUTH_TAKEOUT":0,
            "RAW_MATERIAL_BATCH_NUMBER_": "SDS-7120",
            "OWN_ADRESS": "GEM",
            "MATERIAL_NAME_": "实轴"
        },
        {
            "TOP_LINE": 20000,
            "BOTTOM_LINE": 5000,
            "NOW_NUMBER":5121,
            "THIS_MOUTH_TAKEIN":0,
            "THIS_MOUTH_TAKEOUT":0,
            "LAST_MOUTH_TAKEIN":0,
            "LAST_MOUTH_TAKEOUT":0,
            "RAW_MATERIAL_BATCH_NUMBER_": "SDS-7120",
            "OWN_ADRESS": "GEM",
            "MATERIAL_NAME_": "实轴"
        },
        {
            "TOP_LINE": 20000,
            "BOTTOM_LINE": 5000,
            "NOW_NUMBER":5121,
            "THIS_MOUTH_TAKEIN":0,
            "THIS_MOUTH_TAKEOUT":0,
            "LAST_MOUTH_TAKEIN":0,
            "LAST_MOUTH_TAKEOUT":0,
            "RAW_MATERIAL_BATCH_NUMBER_": "SDS-7120",
            "OWN_ADRESS": "GEM",
            "MATERIAL_NAME_": "实轴"
        },
        {
            "TOP_LINE": 20000,
            "BOTTOM_LINE": 5000,
            "NOW_NUMBER":3000,
            "THIS_MOUTH_TAKEIN":0,
            "THIS_MOUTH_TAKEOUT":0,
            "LAST_MOUTH_TAKEIN":0,
            "LAST_MOUTH_TAKEOUT":0,
            "RAW_MATERIAL_BATCH_NUMBER_": "SDS-7120",
            "OWN_ADRESS": "GEM",
            "MATERIAL_NAME_": "外星轮"
        }
    ],
    "success": true,
    "total": 2
}